10 1 20
1 1 1
1812 1812 17
76393 93093 351
21608 22458 269
6379 10346 260
55011 65564 335
1759 3102 217
20169 37917 324
619 3433 217
11326 18308 279
6412 12492 268
12662 47094 324
4637 12490 268
13997 26115 282
8488 11249 268
13452 62499 340
2189 3952 238
7402 16688 276
517 2060 182
15186 44076 324
33916 47961 324
24499 52896 340
23772 36640 324
3224 3564 181
9210 10386 260
21951 25880 282
5275 19471 279
3346 3356 137
194 14205 276
13933 15912 271
58 120 119
2336 8046 262
15246 41415 324
199 11545 268
16913 71415 340
16761 27672 308
28755 50765 324
34824 39220 324
6087 17867 279
41706 55864 340
4190 27443 308
5120 10628 262
160 3524 217
9669 25971 282
7088 41870 324
20674 24123 282
9684 15721 276
15790 78970 351
54996 62665 335
22699 30410 308
12694 42880 324
37782 57556 340
32037 80070 351
97 639 144
895 5839 238
19060 19941 274
8176 34995 311
15269 20321 279
30802 31999 285
183 1836 182
19356 56888 340
189 312 128
7758 8742 252
2662 43272 324
18716 58573 340
35888 45731 314
33146 46534 324
18926 23676 282
9455 26524 282
59305 75192 335
17290 39846 324
10849 39514 324
3509 80869 351
14721 21863 279
44704 47864 314
38198 53354 340
8501 18154 279
2933 5139 238
297 7794 262
1523 6363 262
221 567 144
12209 29717 308
12619 18524 279
17251 21175 279
23853 84580 351
6008 25264 282
1192 8631 262
34823 67622 340
18134 35336 311
14767 38580 324
53968 57081 322
9303 15838 276
13135 21317 279
19366 31006 308
39720 70582 340
9336 36331 324
54681 73829 335
3694 3993 238
7969 13609 276
1616 19249 279
54942 61979 335
19609 30056 308
5370 32400 308
32063 77942 351
8044 52361 324
8918 10345 260
3310 5084 238
26289 41527 324
1754 11455 268
400 38039 324
16938 38932 324
2635 32208 308
1769 58915 340
22240 37151 324
11128 14405 276
54200 67107 335
63120 67702 330
276 8476 262
53794 71429 335
43373 60832 340
813 3578 217
17678 51099 324
7424 28280 308
29165 47443 324
645 15866 276
10334 31628 308
9576 28958 308
26218 26862 308
18426 74407 340
11955 54106 340
26604 55010 340
20735 43650 324
3757 8689 262
23791 56126 340
11298 13725 276
35853 69627 340
16643 22040 279
2038 31469 308
30866 35573 311
8074 27982 308
4992 32159 308
56774 68614 335
20914 47454 324
5202 18368 279
9638 10778 255
24332 75012 340
6511 10417 260
11194 17898 279
12987 20617 279
1057 2076 182
41831 57242 340
13796 16355 271
4970 28589 308
12505 32988 308
13854 31561 308
3680 4140 238
25642 31247 308
4460 5343 210
2462 3104 217
5187 8284 262
11982 67881 340
46831 60317 340
43499 81855 351
107 530 144
357 57258 340
9176 57401 340
2144 18803 279
26660 26991 246
1244 9274 262
71540 83964 351
13796 40496 324
20052 23160 269
12801 17059 276
417 4491 238
40686 51974 314
37753 37960 262
5268 61403 340
21010 49648 324
10472 13823 276
63996 65552 299
10632 43675 324
9103 60655 340
3573 19787 279
21582 40492 324
4091 15298 276
1818 12723 268
14489 25356 282
9858 75537 340
608 3636 217
6594 10051 260
46586 70466 340
54717 85938 351
2412 4018 238
30021 67673 340
32145 34575 311
1882 14855 276
1265 66779 340
35177 3484 311
